{
  "siteTitle": "Gatsby Starter Business",
  "siteTitleAlt": "Business",
  "siteLogo": "/icons/icon-512x512.png",
  "siteUrl": "https://gatsby-starter-business.netlify.com",
  "pathPrefix": "/",
  "siteDescription": "Leverage Gatsby Business Starter for your Business.",
  "siteRss": "/rss.xml",
  "siteFBAppId": "",
  "googleTagManagerId": "",
  "googleAnalytics": {
    "trackingId": "",
    "head": false,
    "respectDNT": false,
    "exclude": [],
    "optimizeId": ""
  },
  "disqusShortname": "",
  "userName": "Mariusz Wachowski",
  "userTwitter": "",
  "copyright": "Copyright © Gatsby Starter Business {{year}}. All Rights Reserved.",
  "themeColor": "#00d1b2",
  "backgroundColor": "#ffffff"
}
