{
  "links": [
    {
      "label": "About",
      "path": "/about/"
    },
    {
      "label": "Pricing",
      "path": "/pricing/"
    },
    {
      "label": "Blog",
      "path": "/blog/"
    },
    {
      "label": "Contact",
      "path": "/contact/"
    }
  ]
}
